…
This is a short report of the data analysis conducted for the GPRI
validation study (Gomes, et al., under review). Check the complete code
for the data analysis
[here](https://github.com/tiagodsferreira/together_repo/blob/main/GPRI_syntax.R).

## Missing data analysis

The percentage of missing data was reduced

    ## [1] 0.05032206

### Paterns of missing data

    ## # A tibble: 24 x 3
    ##    variable    n_miss pct_miss
    ##    <chr>        <int>    <dbl>
    ##  1 GPRI_ITEM7      43    20.8 
    ##  2 GPRI_ITEM11     37    17.9 
    ##  3 hist_cancro     30    14.5 
    ##  4 GPRI_ITEM4b     23    11.1 
    ##  5 GPRI_ITEM10     23    11.1 
    ##  6 GPRI_ITEM9      18     8.70
    ##  7 GPRI_ITEM4c     17     8.21
    ##  8 GPRI_ITEM5      16     7.73
    ##  9 GPRI_ITEM6      10     4.83
    ## 10 GPRI_ITEM4a      9     4.35
    ## # ... with 14 more rows
…
